<svg xmlns="http://www.w3.org/2000/svg" viewBox="0 0 14 10">
  <rect fill="#f5d606" width="10" height="2" x="4" y="8"/>
  <rect fill="#f5d606" width="10" height="2" x="4" y="4"/>
  <rect fill="#f5d606" width="10" height="2" x="4"/>
  <rect fill="#f5d606" width="2" height="2" y="8"/>
  <rect fill="#f5d606" width="2" height="2" y="4"/>
  <rect fill="#f5d606" width="2" height="2"/>
</svg>
