<?xml version="1.0" encoding="UTF-8" standalone="no"?>
<svg width="16px" height="16px" viewBox="0 0 16 16" version="1.1" xmlns="http://www.w3.org/2000/svg" xmlns:xlink="http://www.w3.org/1999/xlink" xmlns:sketch="http://www.bohemiancoding.com/sketch/ns">
    <!-- Generator: Sketch 3.3.3 (12072) - http://www.bohemiancoding.com/sketch -->
    <title>check-yellow</title>
    <desc>Created with Sketch.</desc>
    <defs></defs>
    <g id="Page-1" stroke="none" stroke-width="1" fill="none" fill-rule="evenodd" sketch:type="MSPage">
        <g id="790px-03-What-Selected" sketch:type="MSArtboardGroup" transform="translate(-484.000000, -355.000000)" fill="#F5D606">
            <g id="HEADER" sketch:type="MSLayerGroup" transform="translate(0.000000, 89.000000)">
                <g id="QUESTION-1---What-Copy" transform="translate(10.000000, 93.000000)" sketch:type="MSShapeGroup">
                    <g id="Events-Copy" transform="translate(397.000000, 114.000000)">
                        <g id="Education" transform="translate(0.000000, 59.000000)">
                            <path d="M77.5510254,9.36584473 L83.7259521,15.1599121 L92.9709473,1.46728516 L90.633667,0.103637695 L83.2470703,9.81591797 L79.3659668,7.15014648 L77.5510254,9.36584473 Z" id="check-yellow"></path>
                        </g>
                    </g>
                </g>
            </g>
        </g>
    </g>
</svg>