<?xml version="1.0" encoding="utf-8"?>
<!-- Generator: Adobe Illustrator 16.0.3, SVG Export Plug-In . SVG Version: 6.00 Build 0)  -->
<!DOCTYPE svg PUBLIC "-//W3C//DTD SVG 1.1//EN" "http://www.w3.org/Graphics/SVG/1.1/DTD/svg11.dtd">
<svg version="1.1" id="Layer_1" xmlns:sketch="http://www.bohemiancoding.com/sketch/ns"
	 xmlns="http://www.w3.org/2000/svg" xmlns:xlink="http://www.w3.org/1999/xlink" x="0px" y="0px" width="208px" height="209px"
	 viewBox="0 0 208 209" enable-background="new 0 0 208 209" xml:space="preserve">
<title>Mask Copy 3</title>
<desc>Created with Sketch.</desc>
<g id="Page-1" sketch:type="MSPage">
	<g id="Breakpoint---1440px-Copy-4" transform="translate(-199.000000, -1316.000000)" sketch:type="MSArtboardGroup">
		<path id="Mask-Copy-3" sketch:type="MSShapeGroup" fill="#F5D606" d="M361.119,1387.654l19.1,19.099H329.03
			c-13.778,0-13.778-12.993-13.778-12.993v-51.974l19.672,19.672l45.58-45.458l26.391,26.144L361.119,1387.654z M244.774,1452.354
			l-19.099-19.1h51.189c13.778,0,13.778,12.994,13.778,12.994v51.973l-19.672-19.672l-45.581,45.458L199,1497.864L244.774,1452.354
			L244.774,1452.354z"/>
	</g>
</g>
</svg>
