<svg xmlns="http://www.w3.org/2000/svg" xmlns:xlink="http://www.w3.org/1999/xlink" version="1.1" id="Layer_1" x="0px" y="0px" viewBox="-69 270 420 420" xml:space="preserve" enable-background="new -69 270 420 420">
  <style type="text/css">
    
	.st0{fill:none;stroke:#464841;stroke-width:20;stroke-linecap:round;}

  </style>
  <path class="st0" d="M140 280.5c-110.5 0.6-199.5 90.6-199 201 0.6 110.5 90.6 199.5 201 199 110.5-0.6 199.5-90.6 199-201 -0.6-109.7-89.3-198.4-199-199H140zM141 280.5v400M341 480.5H-59M-13.9 357.4c92.7 66.1 215.7 64.1 309.7 0M295.9 603.6c-94-68.6-215.7-70.6-309.7 0M125.6 285.6C17.4 377 3.8 538.8 95.2 647c9.3 11 19.5 21.2 30.5 30.5M156.4 677.4c108.2-91.4 121.8-253.1 30.5-361.3 -9.3-11-19.5-21.2-30.5-30.5"/>
</svg>
