<?xml version="1.0" encoding="utf-8"?>
<!-- Generator: Adobe Illustrator 19.2.0, SVG Export Plug-In . SVG Version: 6.00 Build 0)  -->
<svg version="1.1" id="svg" xmlns="http://www.w3.org/2000/svg" xmlns:xlink="http://www.w3.org/1999/xlink" x="0px" y="0px"
	 viewBox="0 0 225 225" style="enable-background:new 0 0 225 225;" xml:space="preserve">
<style type="text/css">
	.st0{fill:#464841;}
	.st1{fill:none;stroke:#B4BAAE;stroke-miterlimit:10;}
	.st2{enable-background:new    ;}
</style>
<g>
	<path class="st0" d="M1.5,221.6c0.3,1.1,1.1,1.6,2.3,1.6s1.9-0.7,1.9-1.7c0-1.2-0.9-1.4-2.1-2c-2.1-1-3.2-1.8-3.2-3.6
		c0-1.9,1.4-3.2,3.5-3.2c1.7,0,2.9,0.7,3.4,1.9l-1.5,0.8c-0.5-0.7-1-1.1-1.7-1.1c-1,0-1.7,0.6-1.7,1.5c0,1.1,0.9,1.5,2.2,2.1
		c2.1,1,3,1.8,3,3.5c0,2.2-1.5,3.6-3.9,3.6c-2,0-3.3-1-3.7-2.7L1.5,221.6z"/>
	<path class="st0" d="M13.5,224.7h-1.9v-10.2H8.5v-1.6h8.2v1.6h-3.1L13.5,224.7L13.5,224.7z"/>
	<path class="st0" d="M23.3,221.7h-4.7l-1.4,3h-2l5.7-12.2l5.7,12.2h-2L23.3,221.7z M22.7,220.1l-1.2-2.7c-0.1-0.3-0.3-0.7-0.4-1.3
		c-0.1,0.6-0.3,1-0.4,1.3l-1.2,2.7H22.7z"/>
	<path class="st0" d="M38.7,218.7c0,0.5,0,0.8,0,1.1c0,3.3-2,5.2-5.4,5.2c-1.9,0-3.4-0.6-4.6-1.7c-1.1-1.1-1.7-2.7-1.7-4.5
		s0.6-3.3,1.8-4.4c1.2-1.1,2.7-1.7,4.5-1.7c1.9,0,3.3,0.7,4.4,2.1l-1.4,1.1c-0.8-0.9-1.8-1.4-3-1.4c-2.5,0-4.3,1.8-4.3,4.4
		c0,2.7,1.8,4.5,4.4,4.5c2.2,0,3.5-1.1,3.5-2.9c0,0,0-0.1,0-0.2h-2.8v-1.6L38.7,218.7L38.7,218.7z"/>
	<path class="st0" d="M40.7,212.9h6.6v1.6h-4.7v2.9h4.7v1.7h-4.7v3.8h4.7v1.7h-6.6V212.9z"/>
</g>
<polyline class="st1" points="108.8,225 108.8,196.3 0,196.3 "/>
<g class="st2">
	<path class="st0" d="M112,170.2h-2.6l-0.8,1.7h-1.1l3.2-6.8l3.2,6.8h-1.1L112,170.2z M111.6,169.3l-0.7-1.5
		c-0.1-0.2-0.2-0.4-0.2-0.7c-0.1,0.3-0.2,0.6-0.2,0.7l-0.7,1.5H111.6z"/>
</g>
<g class="st2">
	<path class="st0" d="M133.8,147.7h1.7c0.7,0,1.2,0,1.6,0.3s0.7,0.8,0.7,1.4c0,0.7-0.3,1.2-1,1.4c0.8,0.1,1.2,0.7,1.2,1.6
		c0,0.5-0.2,1.1-0.5,1.4c-0.5,0.5-1.1,0.5-2,0.5h-1.7L133.8,147.7L133.8,147.7z M135.2,150.6c1,0,1.4-0.2,1.4-0.9c0-0.8-0.5-1-1.4-1
		h-0.4v1.9H135.2z M135.2,153.5c0.6,0,1,0,1.3-0.2s0.4-0.5,0.4-0.8c0-0.4-0.2-0.7-0.5-0.9c-0.3-0.1-0.5-0.1-0.9-0.1
		c-0.1,0-0.2,0-0.3,0h-0.4v2.1h0.4V153.5z"/>
</g>
<g class="st2">
	<path class="st0" d="M156.4,127.6c-1.5,0-2.5,1-2.5,2.5s1,2.5,2.4,2.5c0.8,0,1.5-0.3,2.2-0.8v1.2c-0.6,0.4-1.3,0.6-2.1,0.6
		c-1,0-1.9-0.3-2.6-1c-0.7-0.6-1-1.5-1-2.5s0.4-1.9,1-2.5c0.7-0.7,1.5-1,2.5-1c0.8,0,1.5,0.2,2.2,0.7l-0.1,1.1
		C157.8,127.8,157.1,127.6,156.4,127.6z"/>
</g>
<g class="st2">
	<path class="st0" d="M180,105.2h1.5c1.2,0,2.2,0,3,0.6s1.2,1.5,1.2,2.7s-0.4,2.1-1.2,2.7c-0.8,0.6-1.7,0.6-2.7,0.6
		c-0.1,0-0.2,0-0.3,0H180V105.2z M181.5,110.9c0.2,0,0.4,0,0.5,0c0.7,0,1.3,0,1.8-0.4s0.8-1.1,0.8-1.9s-0.3-1.5-0.8-1.9
		s-1.1-0.4-1.9-0.4c-0.1,0-0.3,0-0.4,0h-0.4v4.7h0.4V110.9z"/>
</g>
<g class="st2">
	<path class="st0" d="M205,83.7h3.7v0.9H206v1.7h2.6v1H206v2.2h2.6v1H205V83.7z"/>
</g>
<g class="st2">
	<path class="st0" d="M198,42.3h3.7v0.9h-2.6v1.7h2.6v1h-2.6V49H198V42.3z"/>
</g>
<g class="st2">
	<path class="st0" d="M24,166.2h-2.6l-0.8,1.7h-1.1l3.2-6.8l3.2,6.8h-1.1L24,166.2z M23.6,165.3l-0.7-1.5c-0.1-0.2-0.2-0.4-0.2-0.7
		c-0.1,0.3-0.2,0.6-0.2,0.7l-0.7,1.5H23.6z"/>
</g>
<g class="st2">
	<path class="st0" d="M14.8,130.7h1.7c0.7,0,1.2,0,1.6,0.3s0.7,0.8,0.7,1.4c0,0.7-0.3,1.2-1,1.4c0.8,0.1,1.2,0.7,1.2,1.6
		c0,0.5-0.2,1.1-0.5,1.4c-0.5,0.5-1.1,0.5-2,0.5h-1.7L14.8,130.7L14.8,130.7z M16.2,133.6c1,0,1.4-0.2,1.4-0.9c0-0.8-0.5-1-1.4-1
		h-0.4v1.9H16.2z M16.2,136.5c0.6,0,1,0,1.3-0.2s0.4-0.5,0.4-0.8c0-0.4-0.2-0.7-0.5-0.9c-0.3-0.1-0.5-0.1-0.9-0.1
		c-0.1,0-0.2,0-0.3,0h-0.4v2.1h0.4V136.5z"/>
</g>
<g class="st2">
	<path class="st0" d="M22.4,100.6c-1.5,0-2.5,1-2.5,2.5s1,2.5,2.4,2.5c0.8,0,1.5-0.3,2.2-0.8v1.2c-0.6,0.4-1.3,0.6-2.1,0.6
		c-1,0-1.9-0.3-2.6-1c-0.7-0.6-1-1.5-1-2.5s0.4-1.9,1-2.5c0.7-0.7,1.5-1,2.5-1c0.8,0,1.5,0.2,2.2,0.7l-0.1,1.1
		C23.8,100.8,23.1,100.6,22.4,100.6z"/>
</g>
<g class="st2">
	<path class="st0" d="M16,68.2h1.5c1.2,0,2.2,0,3,0.6s1.2,1.5,1.2,2.7s-0.4,2.1-1.2,2.7c-0.8,0.6-1.7,0.6-2.7,0.6
		c-0.1,0-0.2,0-0.3,0H16V68.2z M17.5,73.9c0.2,0,0.4,0,0.5,0c0.7,0,1.3,0,1.8-0.4s0.8-1.1,0.8-1.9s-0.3-1.5-0.8-1.9
		s-1.1-0.4-1.9-0.4c-0.1,0-0.3,0-0.4,0h-0.4V74h0.4V73.9z"/>
</g>
<g class="st2">
	<path class="st0" d="M21,37.7h3.7v0.9H22v1.7h2.6v1H22v2.2h2.6v1H21V37.7z"/>
</g>
<g class="st2">
	<path class="st0" d="M18,5.3h3.7v0.9h-2.6v1.7h2.6v1h-2.6V12H18V5.3z"/>
</g>
</svg>
