<?xml version="1.0" encoding="utf-8"?>
<!-- Generator: Adobe Illustrator 19.2.0, SVG Export Plug-In . SVG Version: 6.00 Build 0)  -->
<svg version="1.1" id="svg" xmlns="http://www.w3.org/2000/svg" xmlns:xlink="http://www.w3.org/1999/xlink" x="0px" y="0px"
	 viewBox="0 0 250 250" style="enable-background:new 0 0 250 250;" xml:space="preserve">
<style type="text/css">
	.st0{fill:#464841;}
	.st1{fill:none;stroke:#B4BAAE;stroke-miterlimit:10;}
</style>
<g>
	<path class="st0" d="M182.1,188.2c0.3,1.2,1.2,1.8,2.5,1.8s2.1-0.8,2.1-1.9c0-1.3-1-1.6-2.3-2.2c-2.3-1.1-3.6-2-3.6-4
		c0-2.1,1.6-3.6,3.9-3.6c1.9,0,3.3,0.8,3.8,2.2l-1.7,0.9c-0.5-0.8-1.1-1.2-1.9-1.2c-1.2,0-1.9,0.7-1.9,1.6c0,1.3,1,1.6,2.5,2.3
		c2.3,1.1,3.4,2,3.4,3.9c0,2.4-1.6,4-4.3,4c-2.2,0-3.7-1.1-4.1-3L182.1,188.2z"/>
	<path class="st0" d="M195.4,191.6h-2.1v-11.3h-3.5v-1.8h9v1.8h-3.5v11.3H195.4z"/>
	<path class="st0" d="M206.2,188.3H201l-1.5,3.4h-2.2l6.3-13.6l6.3,13.6h-2.2L206.2,188.3z M205.5,186.5l-1.3-3
		c-0.1-0.3-0.3-0.8-0.5-1.5c-0.2,0.7-0.3,1.1-0.5,1.5l-1.3,3H205.5z"/>
	<path class="st0" d="M223.3,184.9c0,0.5,0,0.9,0,1.2c0,3.7-2.2,5.8-6,5.8c-2.1,0-3.8-0.6-5.1-1.9c-1.2-1.3-1.9-3-1.9-5
		s0.7-3.7,2-4.9s3-1.9,5-1.9c2.1,0,3.7,0.7,4.9,2.3l-1.6,1.2c-0.9-1-2-1.5-3.3-1.5c-2.8,0-4.8,2-4.8,4.9c0,3,2,5,4.8,5
		c2.4,0,3.9-1.2,3.9-3.2c0-0.1,0-0.1,0-0.2h-3.1v-1.8L223.3,184.9L223.3,184.9z"/>
	<path class="st0" d="M225.5,178.6h7.3v1.8h-5.2v3.3h5.2v1.9h-5.2v4.2h5.2v1.9h-7.3V178.6z"/>
	<polygon class="st0" points="239,178.4 250.4,185 239,191.6 	"/>
</g>
<path class="st0" d="M85,234.2h-2.6l-0.8,1.7h-1.1l3.2-6.8l3.2,6.8h-1.1L85,234.2z M84.6,233.3l-0.7-1.5c-0.1-0.2-0.2-0.4-0.2-0.7
	c-0.1,0.3-0.2,0.6-0.2,0.7l-0.7,1.5H84.6z"/>
<path class="st0" d="M54.8,224.4h1.7c0.7,0,1.2,0,1.6,0.3s0.7,0.8,0.7,1.4c0,0.7-0.3,1.2-1,1.4c0.8,0.1,1.2,0.7,1.2,1.6
	c0,0.5-0.2,1.1-0.5,1.4c-0.5,0.5-1.1,0.5-2,0.5h-1.7C54.8,231,54.8,224.4,54.8,224.4z M56.2,227.2c1,0,1.4-0.2,1.4-0.9
	c0-0.8-0.5-1-1.4-1h-0.4v1.9H56.2z M56.2,230.2c0.6,0,1,0,1.3-0.2s0.4-0.5,0.4-0.8c0-0.4-0.2-0.7-0.5-0.9c-0.3-0.1-0.5-0.1-0.9-0.1
	c-0.1,0-0.2,0-0.3,0h-0.4v2.1L56.2,230.2L56.2,230.2z"/>
<path class="st0" d="M30.4,223.2c-1.5,0-2.5,1-2.5,2.5s1,2.5,2.3,2.5c0.8,0,1.5-0.3,2.2-0.8v1.2c-0.6,0.4-1.3,0.6-2.1,0.6
	c-1,0-1.9-0.3-2.6-1c-0.7-0.6-1-1.5-1-2.5s0.4-1.9,1-2.5c0.7-0.7,1.5-1,2.5-1c0.8,0,1.5,0.2,2.2,0.7l-0.1,1.1
	C31.8,223.5,31.1,223.2,30.4,223.2z"/>
<path class="st0" d="M103,53.2h-2.6l-0.8,1.7h-1.1l3.2-6.8l3.2,6.8h-1.1L103,53.2z M102.6,52.3l-0.7-1.5c-0.1-0.2-0.2-0.4-0.2-0.7
	c-0.1,0.3-0.2,0.6-0.2,0.7l-0.7,1.5H102.6z"/>
<path class="st0" d="M79.8,28.4h1.7c0.7,0,1.2,0,1.6,0.3s0.7,0.8,0.7,1.4c0,0.7-0.3,1.2-1,1.4c0.8,0.1,1.2,0.7,1.2,1.6
	c0,0.5-0.2,1.1-0.5,1.4C83,35,82.4,35,81.5,35h-1.7C79.8,35,79.8,28.4,79.8,28.4z M81.2,31.2c1,0,1.4-0.2,1.4-0.9c0-0.8-0.5-1-1.4-1
	h-0.4v1.9H81.2z M81.2,34.2c0.6,0,1,0,1.3-0.2s0.4-0.5,0.4-0.8c0-0.4-0.2-0.7-0.5-0.9c-0.3-0.1-0.5-0.1-0.9-0.1c-0.1,0-0.2,0-0.3,0
	h-0.4v2.1L81.2,34.2L81.2,34.2z"/>
<path class="st0" d="M60.4,12.2c-1.5,0-2.5,1-2.5,2.5s1,2.5,2.3,2.5c0.8,0,1.5-0.3,2.2-0.8v1.2c-0.6,0.4-1.3,0.6-2.1,0.6
	c-1,0-1.9-0.3-2.6-1c-0.7-0.6-1-1.5-1-2.5s0.4-1.9,1-2.5c0.7-0.7,1.5-1,2.5-1c0.8,0,1.5,0.2,2.2,0.7L62.3,13
	C61.8,12.5,61.1,12.2,60.4,12.2z"/>
<path class="st1" d="M99.2,250V88.2c0-1.7,0.2-3.4,0.7-5.1l1.2-4.2c0.3-1.1,0.8-2.2,1.3-3.2L145.7,0"/>
</svg>
