<?xml version="1.0" encoding="utf-8"?>
<!-- Generator: Adobe Illustrator 19.2.0, SVG Export Plug-In . SVG Version: 6.00 Build 0)  -->
<svg version="1.1" id="svg" xmlns="http://www.w3.org/2000/svg" xmlns:xlink="http://www.w3.org/1999/xlink" x="0px" y="0px"
	 viewBox="0 0 250 250" style="enable-background:new 0 0 250 250;" xml:space="preserve">
<style type="text/css">
	.st0{fill:#464841;}
	.st1{fill:none;stroke:#B4BAAE;stroke-miterlimit:10;}
</style>
<g>
	<path class="st0" d="M17.4,128.2c0.3,1.2,1.2,1.8,2.5,1.8s2.1-0.8,2.1-1.9c0-1.3-1-1.6-2.3-2.2c-2.3-1.1-3.6-2-3.6-4
		c0-2.1,1.6-3.6,3.9-3.6c1.9,0,3.3,0.8,3.8,2.2l-1.7,0.9c-0.5-0.8-1.1-1.2-1.9-1.2c-1.2,0-1.9,0.7-1.9,1.6c0,1.3,1,1.6,2.5,2.3
		c2.3,1.1,3.4,2,3.4,3.9c0,2.4-1.6,4-4.3,4c-2.2,0-3.7-1.1-4.1-3L17.4,128.2z"/>
	<path class="st0" d="M30.7,131.6h-2.1v-11.3h-3.5v-1.8h9v1.8h-3.5v11.3H30.7z"/>
	<path class="st0" d="M41.6,128.3h-5.2l-1.5,3.4h-2.2L39,118l6.3,13.6h-2.2L41.6,128.3z M40.9,126.5l-1.3-3
		c-0.1-0.3-0.3-0.8-0.5-1.5c-0.2,0.7-0.3,1.1-0.5,1.5l-1.3,3H40.9z"/>
	<path class="st0" d="M58.6,124.9c0,0.5,0,0.9,0,1.2c0,3.7-2.2,5.8-6,5.8c-2.1,0-3.8-0.6-5.1-1.9c-1.2-1.3-1.9-3-1.9-5
		s0.7-3.7,2-4.9s3-1.9,5-1.9c2.1,0,3.7,0.7,4.9,2.3l-1.6,1.2c-0.9-1-2-1.5-3.3-1.5c-2.8,0-4.8,2-4.8,4.9c0,3,2,5,4.8,5
		c2.4,0,3.9-1.2,3.9-3.2c0-0.1,0-0.1,0-0.2h-3.1v-1.8L58.6,124.9L58.6,124.9z"/>
	<path class="st0" d="M60.9,118.6h7.3v1.8H63v3.3h5.2v1.9H63v4.2h5.2v1.9h-7.3C60.9,131.7,60.9,118.6,60.9,118.6z"/>
	<polygon class="st0" points="11,131.6 -0.4,125 11,118.4 	"/>
</g>
<path class="st0" d="M221.6,215.4h1.7c0.7,0,1.2,0,1.6,0.3c0.4,0.3,0.7,0.8,0.7,1.4c0,0.7-0.3,1.2-1,1.4c0.8,0.1,1.2,0.7,1.2,1.6
	c0,0.5-0.2,1.1-0.5,1.4c-0.5,0.5-1.1,0.5-2,0.5h-1.7V215.4z M223.1,218.2c1,0,1.4-0.2,1.4-0.9c0-0.8-0.5-1-1.4-1h-0.4v1.9H223.1z
	 M223,221.2c0.6,0,1,0,1.3-0.2s0.4-0.5,0.4-0.8c0-0.4-0.2-0.7-0.5-0.9c-0.3-0.1-0.5-0.1-0.9-0.1c-0.1,0-0.2,0-0.3,0h-0.4v2.1
	L223,221.2L223,221.2z"/>
<path class="st0" d="M195.8,220.9h-2.6l-0.8,1.7h-1.1l3.2-6.8l3.2,6.8h-1.1L195.8,220.9z M195.4,220l-0.7-1.5
	c-0.1-0.2-0.2-0.4-0.2-0.7c-0.1,0.3-0.2,0.6-0.2,0.7l-0.7,1.5H195.4z"/>
<path class="st0" d="M221.6,14.4h1.7c0.7,0,1.2,0,1.6,0.3c0.4,0.3,0.7,0.8,0.7,1.4c0,0.7-0.3,1.2-1,1.4c0.8,0.1,1.2,0.7,1.2,1.6
	c0,0.5-0.2,1.1-0.5,1.4c-0.5,0.5-1.1,0.5-2,0.5h-1.7V14.4z M223.1,17.2c1,0,1.4-0.2,1.4-0.9c0-0.8-0.5-1-1.4-1h-0.4v1.9H223.1z
	 M223,20.2c0.6,0,1,0,1.3-0.2s0.4-0.5,0.4-0.8c0-0.4-0.2-0.7-0.5-0.9c-0.3-0.1-0.5-0.1-0.9-0.1c-0.1,0-0.2,0-0.3,0h-0.4v2.1
	L223,20.2L223,20.2z"/>
<path class="st0" d="M195.8,19.9h-2.6l-0.8,1.7h-1.1l3.2-6.8l3.2,6.8h-1.1L195.8,19.9z M195.4,19l-0.7-1.5c-0.1-0.2-0.2-0.4-0.2-0.7
	c-0.1,0.3-0.2,0.6-0.2,0.7l-0.7,1.5H195.4z"/>
<line class="st1" x1="166.5" y1="0" x2="166.5" y2="250"/>
</svg>
