<?xml version="1.0" encoding="utf-8"?>
<!-- Generator: Adobe Illustrator 19.2.0, SVG Export Plug-In . SVG Version: 6.00 Build 0)  -->
<svg version="1.1" id="svg" xmlns="http://www.w3.org/2000/svg" xmlns:xlink="http://www.w3.org/1999/xlink" x="0px" y="0px"
	 viewBox="0 0 200 200" style="enable-background:new 0 0 200 200;" xml:space="preserve">
<style type="text/css">
	.st0{fill:#464841;}
	.st1{fill:none;stroke:#B4BAAE;stroke-miterlimit:10;}
</style>
<g>
	<path class="st0" d="M73.7,197c0.2,0.9,1,1.4,2,1.4s1.7-0.6,1.7-1.6s-0.8-1.3-1.9-1.8c-1.9-0.9-2.9-1.6-2.9-3.2
		c0-1.7,1.2-2.9,3.1-2.9c1.6,0,2.6,0.6,3,1.7l-1.3,0.7c-0.4-0.6-0.9-1-1.6-1c-0.9,0-1.5,0.5-1.5,1.3c0,1,0.8,1.3,2,1.9
		c1.8,0.8,2.7,1.6,2.7,3.1c0,1.9-1.3,3.2-3.5,3.2c-1.8,0-3-0.8-3.3-2.4L73.7,197z"/>
	<path class="st0" d="M84.3,199.7h-1.7v-9h-2.8v-1.5h7.3v1.5h-2.8V199.7z"/>
	<path class="st0" d="M93.1,197H89l-1.2,2.7H86l5.1-10.9l5.1,10.9h-1.8L93.1,197z M92.5,195.6l-1.1-2.4c-0.1-0.3-0.2-0.7-0.4-1.2
		c-0.1,0.5-0.3,0.9-0.4,1.2l-1.1,2.4H92.5z"/>
	<path class="st0" d="M106.7,194.4c0,0.4,0,0.7,0,1c0,3-1.8,4.7-4.8,4.7c-1.7,0-3-0.5-4.1-1.5c-1-1-1.5-2.4-1.5-4s0.5-2.9,1.6-4
		c1-1,2.4-1.5,4-1.5c1.7,0,2.9,0.6,4,1.8l-1.2,0.9c-0.7-0.8-1.6-1.2-2.7-1.2c-2.2,0-3.9,1.6-3.9,3.9c0,2.4,1.6,4,3.9,4
		c2,0,3.1-1,3.1-2.5v-0.1h-2.5v-1.4L106.7,194.4L106.7,194.4z"/>
	<path class="st0" d="M108.5,189.3h5.8v1.5h-4.1v2.6h4.1v1.5h-4.1v3.4h4.1v1.5h-5.8V189.3z"/>
	<polygon class="st0" points="127.7,190 122.4,199.1 117.2,190 	"/>
</g>
<path class="st1" d="M200,119.9C176,102.2,144.3,90,102.5,90C57.9,90,24.7,103.3,0,122.4"/>
<path class="st0" d="M46.6,34.4h1.7c0.7,0,1.2,0,1.6,0.3s0.7,0.8,0.7,1.4c0,0.7-0.3,1.2-1,1.4c0.8,0.1,1.2,0.7,1.2,1.6
	c0,0.5-0.2,1.1-0.5,1.4c-0.5,0.5-1.1,0.5-2,0.5h-1.7V34.4L46.6,34.4z M48.1,37.2c1,0,1.4-0.2,1.4-0.9c0-0.8-0.5-1-1.4-1h-0.4v1.9
	H48.1z M48,40.2c0.6,0,1,0,1.3-0.2s0.4-0.5,0.4-0.8c0-0.4-0.2-0.7-0.5-0.9c-0.3-0.1-0.5-0.1-0.9-0.1c-0.1,0-0.2,0-0.3,0h-0.4v2.1
	L48,40.2L48,40.2z"/>
<path class="st0" d="M59.8,68.9h-2.6l-0.8,1.7h-1.1l3.2-6.8l3.2,6.8h-1.1L59.8,68.9z M59.4,68l-0.7-1.5c-0.1-0.2-0.2-0.4-0.2-0.7
	c-0.1,0.3-0.2,0.6-0.2,0.7L57.6,68H59.4z"/>
<path class="st0" d="M154.6,34.4h1.7c0.7,0,1.2,0,1.6,0.3c0.4,0.3,0.7,0.8,0.7,1.4c0,0.7-0.3,1.2-1,1.4c0.8,0.1,1.2,0.7,1.2,1.6
	c0,0.5-0.2,1.1-0.5,1.4c-0.5,0.5-1.1,0.5-2,0.5h-1.7V34.4z M156.1,37.2c1,0,1.4-0.2,1.4-0.9c0-0.8-0.5-1-1.4-1h-0.4v1.9H156.1z
	 M156,40.2c0.6,0,1,0,1.3-0.2s0.4-0.5,0.4-0.8c0-0.4-0.2-0.7-0.5-0.9c-0.3-0.1-0.5-0.1-0.9-0.1c-0.1,0-0.2,0-0.3,0h-0.4v2.1
	L156,40.2L156,40.2z"/>
<path class="st0" d="M148.8,68.9h-2.6l-0.8,1.7h-1.1l3.2-6.8l3.2,6.8h-1.1L148.8,68.9z M148.4,68l-0.7-1.5c-0.1-0.2-0.2-0.4-0.2-0.7
	c-0.1,0.3-0.2,0.6-0.2,0.7l-0.7,1.5H148.4z"/>
</svg>
