<?xml version="1.0" encoding="utf-8"?>
<!-- Generator: Adobe Illustrator 19.2.0, SVG Export Plug-In . SVG Version: 6.00 Build 0)  -->
<svg version="1.1" id="svg" xmlns="http://www.w3.org/2000/svg" xmlns:xlink="http://www.w3.org/1999/xlink" x="0px" y="0px"
	 viewBox="0 0 250 250" style="enable-background:new 0 0 250 250;" xml:space="preserve">
<style type="text/css">
	.st0{fill:#464841;}
</style>
<g>
	<path class="st0" d="M15.8,246.2c0.3,1.2,1.2,1.8,2.5,1.8s2.1-0.8,2.1-1.9c0-1.3-1-1.6-2.3-2.3c-2.3-1.1-3.6-2-3.6-4
		c0-2.1,1.6-3.6,3.9-3.6c1.9,0,3.3,0.8,3.8,2.2l-1.7,0.9c-0.5-0.8-1.1-1.2-1.9-1.2c-1.2,0-1.9,0.7-1.9,1.6c0,1.3,1,1.6,2.5,2.3
		c2.3,1.1,3.4,2,3.4,3.9c0,2.4-1.6,4-4.3,4c-2.2,0-3.7-1.1-4.1-3L15.8,246.2z"/>
	<path class="st0" d="M29.2,249.7H27v-11.3h-3.5v-1.8h9.1v1.8h-3.5v11.3H29.2z"/>
	<path class="st0" d="M40.1,246.3h-5.2l-1.5,3.4h-2.2l6.3-13.6l6.3,13.6h-2.3L40.1,246.3z M39.3,244.5l-1.3-3
		c-0.1-0.3-0.3-0.8-0.5-1.5c-0.2,0.7-0.3,1.1-0.5,1.5l-1.3,3H39.3z"/>
	<path class="st0" d="M57.1,243c0,0.5,0,0.9,0,1.2c0,3.7-2.2,5.8-6,5.8c-2.1,0-3.8-0.6-5.1-1.9c-1.2-1.3-1.9-3-1.9-5s0.7-3.7,2-4.9
		s3-1.9,5-1.9c2.1,0,3.7,0.8,4.9,2.3l-1.6,1.2c-0.9-1-2-1.5-3.4-1.5c-2.8,0-4.8,2-4.8,4.9c0,3,2,5,4.8,5c2.5,0,3.9-1.2,3.9-3.2
		c0-0.1,0-0.1,0-0.2h-3.1V243H57.1z"/>
	<path class="st0" d="M59.4,236.6h7.3v1.8h-5.2v3.3h5.2v1.9h-5.2v4.2h5.2v1.9h-7.3C59.4,249.7,59.4,236.6,59.4,236.6z"/>
	<polygon class="st0" points="12.3,239.8 3,249 3.1,236 	"/>
</g>
<path class="st0" d="M80.3,207.9h1.5c1.2,0,2.2,0,3,0.6s1.2,1.5,1.2,2.7s-0.4,2.1-1.2,2.7c-0.8,0.6-1.7,0.6-2.7,0.6
	c-0.1,0-0.2,0-0.3,0h-1.5V207.9z M81.8,213.6c0.2,0,0.4,0,0.5,0c0.7,0,1.3,0,1.8-0.4s0.8-1.1,0.8-1.9s-0.3-1.5-0.8-1.9
	S83,209,82.2,209c-0.1,0-0.3,0-0.4,0h-0.4v4.7h0.4V213.6z"/>
<path class="st0" d="M115,202.4h3.7v0.9h-2.6v1.7h2.6v1h-2.6v2.2h2.6v1H115V202.4z"/>
<path class="st0" d="M152.7,199h3.7v0.9h-2.6v1.7h2.6v1h-2.6v3.1h-1.1V199z"/>
<path class="st0" d="M188.4,186.1c0,0.3,0,0.5,0,0.6c0,1.9-1.1,3-3.1,3c-1.1,0-1.9-0.3-2.6-1c-0.6-0.6-1-1.5-1-2.5s0.3-1.9,1-2.5
	s1.5-1,2.5-1c1.1,0,1.9,0.4,2.5,1.2l-0.8,0.6c-0.4-0.5-1-0.8-1.7-0.8c-1.4,0-2.5,1-2.5,2.5s1,2.5,2.5,2.5c1.2,0,2-0.6,2-1.6V187
	h-1.6v-0.9L188.4,186.1L188.4,186.1z"/>
<path class="st0" d="M206,172.4h1.1v2.5h3.3v-2.5h1.1v6.7h-1.1v-3.2h-3.3v3.2H206V172.4z"/>
<path class="st0" d="M193.1,70.2c0.5,0,0.6-0.3,0.6-1v-4.8h1.1v5.2c0,1.1-0.5,1.6-1.5,1.6c-0.6,0-1-0.2-1.5-0.7l0.7-0.7
	C192.7,70.1,192.8,70.2,193.1,70.2z"/>
<path class="st0" d="M31.3,114.9h1.5c1.2,0,2.2,0,3,0.6s1.2,1.5,1.2,2.7s-0.4,2.1-1.2,2.7c-0.8,0.6-1.7,0.6-2.7,0.6
	c-0.1,0-0.2,0-0.3,0h-1.5V114.9z M32.8,120.6c0.2,0,0.4,0,0.5,0c0.7,0,1.3,0,1.8-0.4s0.8-1.1,0.8-1.9s-0.3-1.5-0.8-1.9
	S34,116,33.2,116c-0.1,0-0.3,0-0.4,0h-0.4v4.7h0.4V120.6z"/>
<path class="st0" d="M59,91.4h3.7v0.9h-2.6V94h2.6v1h-2.6v2.2h2.6v1H59V91.4z"/>
<path class="st0" d="M88.7,70h3.7v0.9h-2.6v1.7h2.6v1h-2.6v3.1h-1.1V70z"/>
<path class="st0" d="M119.4,51.1c0,0.3,0,0.5,0,0.6c0,1.9-1.1,3-3.1,3c-1.1,0-1.9-0.3-2.6-1c-0.6-0.6-1-1.5-1-2.5s0.3-1.9,1-2.5
	s1.5-1,2.5-1c1.1,0,1.9,0.4,2.5,1.2l-0.8,0.6c-0.4-0.5-1-0.8-1.7-0.8c-1.4,0-2.5,1-2.5,2.5s1,2.5,2.5,2.5c1.2,0,2-0.6,2-1.6V52h-1.6
	v-0.9L119.4,51.1L119.4,51.1z"/>
<path class="st0" d="M135,35.4h1.1v2.5h3.3v-2.5h1.1v6.7h-1.1v-3.2h-3.3v3.2H135V35.4z"/>
<path class="st0" d="M141.1,5.8c0.5,0,0.6-0.3,0.6-1V0h1.1v5.2c0,1.1-0.5,1.6-1.5,1.6c-0.6,0-1-0.2-1.5-0.7l0.7-0.7
	C140.7,5.7,140.8,5.8,141.1,5.8z"/>
</svg>
