<?xml version="1.0" encoding="utf-8"?>
<!-- Generator: Adobe Illustrator 19.1.0, SVG Export Plug-In . SVG Version: 6.00 Build 0)  -->
<svg version="1.1" id="Layer_1" xmlns="http://www.w3.org/2000/svg" xmlns:xlink="http://www.w3.org/1999/xlink" x="0px" y="0px"
	 viewBox="-276 476 5.7 9" style="enable-background:new -276 476 5.7 9;" xml:space="preserve">
<style type="text/css">
	.st0{fill:#FFFFFF;}
</style>
<g id="GZtUF6.tif">
	<g>
		<path class="st0" d="M-273.6,480.5c0,0,2,2,3,3c0.3,0.3,0.3,0.6,0.2,0.9c-0.2,0.6-0.9,0.8-1.3,0.4l-0.1-0.1
			c-1.4-1.4-4.2-4.2-4.2-4.2s2.8-2.8,4.2-4.2c0.1-0.2,0.3-0.3,0.5-0.3c0.4-0.1,0.9,0.2,1,0.7c0.1,0.3,0,0.6-0.2,0.8L-273.6,480.5z"
			/>
	</g>
</g>
</svg>
