<?xml version="1.0" encoding="UTF-8" standalone="no"?>
<svg width="208px" height="209px" viewBox="0 0 208 209" version="1.1" xmlns="http://www.w3.org/2000/svg" xmlns:xlink="http://www.w3.org/1999/xlink" xmlns:sketch="http://www.bohemiancoding.com/sketch/ns">
    <!-- Generator: Sketch 3.3.3 (12081) - http://www.bohemiancoding.com/sketch -->
    <title>Mask Copy 3</title>
    <desc>Created with Sketch.</desc>
    <defs></defs>
    <g id="Page-1" stroke="none" stroke-width="1" fill="none" fill-rule="evenodd" sketch:type="MSPage">
        <g id="Breakpoint---1440px-Copy-4" sketch:type="MSArtboardGroup" transform="translate(-199.000000, -1316.000000)" fill="#E3E6E1">
            <path d="M361.026686,1335.09889 L341.927792,1316 L393.116408,1316 C406.89497,1316 406.89497,1328.99344 406.89497,1328.99344 L406.89497,1380.96718 L387.22294,1361.29515 L341.642291,1406.75261 L315.252547,1380.60872 L361.026686,1335.09889 Z M244.868284,1504.90869 L263.967178,1524.00758 L212.778561,1524.00758 C199,1524.00758 199,1511.01415 199,1511.01415 L199,1459.04041 L218.67203,1478.71244 L264.252678,1433.25497 L290.642422,1459.39887 L244.868284,1504.90869 L244.868284,1504.90869 Z" id="Mask-Copy-3" sketch:type="MSShapeGroup"></path>
        </g>
    </g>
</svg>