<?xml version="1.0" encoding="utf-8"?>
<!-- Generator: Adobe Illustrator 19.1.0, SVG Export Plug-In . SVG Version: 6.00 Build 0)  -->
<svg version="1.1" id="Layer_1" xmlns="http://www.w3.org/2000/svg" xmlns:xlink="http://www.w3.org/1999/xlink" x="0px" y="0px"
	 viewBox="-271 463 14.5 33.8" style="enable-background:new -271 463 14.5 33.8;" xml:space="preserve">
<style type="text/css">
	.st0{fill:#FFFFFF;}
</style>
<g id="Page-1">
	<g id="_x37_90px-02-What" transform="translate(-367.000000, -206.000000)">
		<g id="HEADER" transform="translate(0.000000, 89.000000)">
			<g id="QUESTION-1---What-Copy" transform="translate(10.000000, 93.000000)">
				<g id="Selection" transform="translate(359.000000, 26.000000)">
					<polygon class="st0" points="-271.2,494.8 -272.8,493.6 -263.1,477.7 -273,462.2 -271.4,461 -258.5,477.7 					"/>
				</g>
			</g>
		</g>
	</g>
</g>
</svg>
